Procesos ETL – Storytelling para Marketing
…
Extraer el año de cosecha con expresiones regulares

El campo title contiene el año de la cosecha embebido en el texto, por ejemplo "Nicosia 2013 Vulkà Bianco (Etna)". Con {stringr} y una expresión regular podemos extraerlo como variable numérica:

vinos_ib <- vinos_ib |>
  mutate(
    cosecha = str_extract(title, "(19|20)[0-9]{2}") |> as.integer()
  )

vinos_ib |>
  count(cosecha, sort = TRUE)

# A tibble: 52 × 2
   cosecha     n
     <int> <int>
 1    2013  1376
 2    2014  1358
 3    2011  1314
 4    2012  1243
 5    2015  1124
 6    2010  1027
 7    2009   959
 8      NA   829
 9    2008   704
10    2007   530
# ℹ 42 more rows
…
Calcula la antigüedad de cada vino respecto al año actual y analiza si los vinos más antiguos tienen puntuaciones más altas. Pista, para calcular el año actual podéis utilizar as.integer(format(Sys.Date(), "%Y"))

TipSolución

vinos_ib <- vinos_ib |>
  mutate(antiguedad = as.integer(format(Sys.Date(), "%Y")) - cosecha)

vinos_ib |>
  filter(!is.na(antiguedad), !is.na(points)) |>
  group_by(antiguedad) |>
  summarise(puntos_medio = mean(points), desviacion = sd(points), n = n()) |>
  arrange(desc(puntos_medio))

# A tibble: 51 × 4
   antiguedad puntos_medio desviacion     n
        <int>        <dbl>      <dbl> <int>
 1         57         98       NA         1
 2         53         96       NA         1
 3         74         95.5      0.707     2
 4         39         95       NA         1
 5         58         95       NA         1
 6         60         95        0         2
 7         65         95       NA         1
 8         69         95       NA         1
 9         99         95        1.41      2
10         42         94.5      0.707     2
# ℹ 41 more rows
…
Transformar factores con {forcats}

Para trabajar con factores, el paquete {forcats} del tidyverse tiene una colección de funciones muy útiles, se recomienda ver la documentación y los ejemplos en el capítulo Factors de R for data Science.

vinos_ib |>
  count(variety) |>
  arrange(n)

# A tibble: 192 × 2
   variety                               n
   <chr>                             <int>
 1 Alvarelhão                            1
 2 Babosa Negro                          1
 3 Bastardo                              1
 4 Bobal-Cabernet Sauvignon              1
 5 Cabernet Franc                        1
 6 Cabernet Sauvignon-Cabernet Franc     1
 7 Cabernet Sauvignon-Shiraz             1
 8 Cercial                               1
 9 Chardonnay-Sauvignon Blanc            1
10 Chardonnay-Viognier                   1
# ℹ 182 more rows

Reducción del número de categorías creando “otros”:

vinos_ib |>
  mutate(variedad = fct_lump_min(variety,
                                 min = 80,
                                 other_level = "Otros")) |>
  count(variedad)

# A tibble: 24 × 2
   variedad             n
   <fct>            <int>
 1 Albariño           340
 2 Alvarinho          136
 3 Chardonnay          91
 4 Garnacha           313
 5 Godello             81
 6 Mencía             178
 7 Monastrell         140
 8 Port               607
 9 Portuguese Red    2466
10 Portuguese White  1159
# ℹ 14 more rows

vinos_ib |>
  mutate(variedad = fct_lump_lowfreq(variety,
                                 other_level = "Otros")) |>
  count(variedad)

# A tibble: 192 × 2
   variedad                 n
   <fct>                <int>
 1 Airen                    3
 2 Albariño               340
 3 Alfrocheiro             16
 4 Alicante Bouschet       44
 5 Alvarelhão               1
 6 Alvarinho              136
 7 Alvarinho-Chardonnay     5
 8 Antão Vaz               17
 9 Aragonês                10
10 Aragonez                10
# ℹ 182 more rows
…
vinos_ib |>
  mutate(scaled_price = scale(price),
         .after = price)

# A tibble: 12,336 × 19
      id country  description designation points price scaled_price[,1] province
   <dbl> <chr>    <chr>       <chr>        <dbl> <dbl>            <dbl> <chr>   
 1     1 Portugal This is ri… Avidagos        87    15          -0.329  Douro   
 2     5 Spain    Blackberry… Ars In Vit…     87    15          -0.329  Norther…
 3    18 Spain    Desiccated… Vendimia S…     87    28           0.0169 Norther…
 4    79 Portugal Grown on t… Bridão          86    NA          NA      Tejo    
 5    81 Spain    Bland, mat… <NA>            86    16          -0.302  Galicia 
 6   151 Portugal This bottl… Gerações C…     91    30           0.0701 Alentej…
 7   154 Spain    Ripe aroma… Single Vin…     91    50           0.602  Central…
 8   157 Portugal From an es… Grande Res…     91    26          -0.0363 Alentej…
 9   203 Portugal A year in … Montes Cla…     90    28           0.0169 Alentejo
10   212 Spain    Mellow whi… Fermentado…     90    40           0.336  Norther…
# ℹ 12,326 more rows
# ℹ 11 more variables: region_1 <chr>, region_2 <chr>, taster_name <chr>,
#   taster_twitter_handle <chr>, title <chr>, variety <chr>,
#   `nombre bodega` <chr>, cosecha <int>, antiguedad <int>, precio_eur <dbl>,
#   logPrecio <dbl>

Ordenar las columnas:

vinos_ib <- vinos_ib |>
  relocate(precio_eur, .after = price)

También tendríamos la primera .before = everything() o la última .after = last_col().

Tratamiento de valores perdidos

vinos_ib |>
  filter(is.na(price))

# A tibble: 888 × 18
      id country  description       designation points price precio_eur province
   <dbl> <chr>    <chr>             <chr>        <dbl> <dbl>      <dbl> <chr>   
 1    79 Portugal Grown on the san… Bridão          86    NA         NA Tejo    
 2   875 Portugal The latest relea… <NA>            90    NA         NA Douro   
 3   986 Portugal This is a sweet,… Late Bottl…     88    NA         NA Port    
 4  1279 Portugal A just off-dry V… Praia           84    NA         NA Vinho V…
 5  1870 Portugal Pitch-black wine… Picos de C…     93    NA         NA Dão     
 6  2017 Portugal This attractive … 3 Castas        87    NA         NA Tejo    
 7  2033 Portugal Still young, it … <NA>            87    NA         NA Tejo    
 8  2104 Portugal Ripe, smooth, ju… Aragonez        87    NA         NA Alentej…
 9  2135 Spain    Clover and apple… Reserva Cu…     85    NA         NA Catalon…
10  2787 Portugal Soft, round and … Boa Memóri…     84    NA         NA Alentej…
# ℹ 878 more rows
# ℹ 10 more variables: region_1 <chr>, region_2 <chr>, taster_name <chr>,
#   taster_twitter_handle <chr>, title <chr>, variety <chr>,
#   `nombre bodega` <chr>, cosecha <int>, antiguedad <int>, logPrecio <dbl>

vinos_ib |>
  filter(is.na(taster_name))

# A tibble: 69 × 18
      id country description        designation points price precio_eur province
   <dbl> <chr>   <chr>              <chr>        <dbl> <dbl>      <dbl> <chr>   
 1  7154 Spain   This new consumer… Old Vine G…     84    13      12.0  Norther…
 2  7824 Spain   This lighter-styl… Gran Reser…     87    29      26.7  Norther…
 3  7833 Spain   This structured, … Can Feixes…     87    10       9.2  Catalon…
 4  7837 Spain   This medium-to fu… Cosecha         87     7       6.44 Levante 
 5  7846 Spain   This lively white… <NA>            87    13      12.0  Galicia 
 6 10204 Spain   There’s plenty of… Brut            86     9       8.28 Catalon…
 7 10205 Spain   Bone-dry and aust… Brut Natur…     86    17      15.6  Catalon…
 8 10218 Spain   A pleasant, softl… Cordon Neg…     85     8       7.36 Catalon…
 9 10222 Spain   This just off-dry… Semi-Seco …     85    13      12.0  Catalon…
10 10223 Spain   Starts out with s… Blanc de B…     85     6       5.52 Catalon…
# ℹ 59 more rows
# ℹ 10 more variables: region_1 <chr>, region_2 <chr>, taster_name <chr>,
#   taster_twitter_handle <chr>, title <chr>, variety <chr>,
#   `nombre bodega` <chr>, cosecha <int>, antiguedad <int>, logPrecio <dbl>

vinos_ib |>
  replace_na(list(taster_name = "DESCONOCIDO",
                  price = median(vinos_ib$price, na.rm = TRUE)))

# A tibble: 12,336 × 18
      id country  description       designation points price precio_eur province
   <dbl> <chr>    <chr>             <chr>        <dbl> <dbl>      <dbl> <chr>   
 1     1 Portugal This is ripe and… Avidagos        87    15       13.8 Douro   
 2     5 Spain    Blackberry and r… Ars In Vit…     87    15       13.8 Norther…
 3    18 Spain    Desiccated black… Vendimia S…     87    28       25.8 Norther…
 4    79 Portugal Grown on the san… Bridão          86    18       NA   Tejo    
 5    81 Spain    Bland, mature ar… <NA>            86    16       14.7 Galicia 
 6   151 Portugal This bottling sh… Gerações C…     91    30       27.6 Alentej…
 7   154 Spain    Ripe aromas of r… Single Vin…     91    50       46   Central…
 8   157 Portugal From an estate i… Grande Res…     91    26       23.9 Alentej…
 9   203 Portugal A year in wood a… Montes Cla…     90    28       25.8 Alentejo
10   212 Spain    Mellow white-fru… Fermentado…     90    40       36.8 Norther…
# ℹ 12,326 more rows
# ℹ 10 more variables: region_1 <chr>, region_2 <chr>, taster_name <chr>,
#   taster_twitter_handle <chr>, title <chr>, variety <chr>,
#   `nombre bodega` <chr>, cosecha <int>, antiguedad <int>, logPrecio <dbl>

vinos_ib <- vinos_ib |>
  select(-region_2)

vinos_ib |>
  drop_na(points, price)

# A tibble: 11,448 × 17
      id country  description       designation points price precio_eur province
   <dbl> <chr>    <chr>             <chr>        <dbl> <dbl>      <dbl> <chr>   
 1     1 Portugal This is ripe and… Avidagos        87    15       13.8 Douro   
 2     5 Spain    Blackberry and r… Ars In Vit…     87    15       13.8 Norther…
 3    18 Spain    Desiccated black… Vendimia S…     87    28       25.8 Norther…
 4    81 Spain    Bland, mature ar… <NA>            86    16       14.7 Galicia 
 5   151 Portugal This bottling sh… Gerações C…     91    30       27.6 Alentej…
 6   154 Spain    Ripe aromas of r… Single Vin…     91    50       46   Central…
 7   157 Portugal From an estate i… Grande Res…     91    26       23.9 Alentej…
 8   203 Portugal A year in wood a… Montes Cla…     90    28       25.8 Alentejo
 9   212 Spain    Mellow white-fru… Fermentado…     90    40       36.8 Norther…
10   217 Portugal Wood aging gives… <NA>            90    20       18.4 Beira A…
# ℹ 11,438 more rows
# ℹ 9 more variables: region_1 <chr>, taster_name <chr>,
#   taster_twitter_handle <chr>, title <chr>, variety <chr>,
#   `nombre bodega` <chr>, cosecha <int>, antiguedad <int>, logPrecio <dbl>
…
